module api

go 1.18

require (
	github.com/gin-contrib/cors v1.3.1
	github.com/joho/godotenv v1.4.0
	golang.org/x/crypto v0.0.0-20220411220226-7b82a4e95df4
)

require (
	github.com/gin-contrib/sse v0.1.0 // indirect
	github.com/go-playground/locales v0.14.0 // indirect
	github.com/go-playground/universal-translator v0.18.0 // indirect
	github.com/go-playground/validator/v10 v10.10.1 // indirect
	github.com/go-sql-driver/mysql v1.6.0 // indirect
	github.com/golang/protobuf v1.5.2 // indirect
	github.com/google/go-cmp v0.5.7 // indirect
	github.com/json-iterator/go v1.1.12 // indirect
	github.com/leodido/go-urn v1.2.1 // indirect
	github.com/mattn/go-isatty v0.0.14 // indirect
	github.com/mitchellh/mapstructure v1.5.0 // indirect
	github.com/modern-go/concurrent v0.0.0-20180306012644-bacd9c7ef1dd // indirect
	github.com/modern-go/reflect2 v1.0.2 // indirect
	github.com/stretchr/testify v1.7.1 // indirect
	github.com/ugorji/go/codec v1.2.7 // indirect
	golang.org/x/sys v0.0.0-20220422013727-9388b58f7150 // indirect
	golang.org/x/text v0.3.7 // indirect
	golang.org/x/xerrors v0.0.0-20220411194840-2f41105eb62f // indirect
	google.golang.org/protobuf v1.28.0 // indirect
	gopkg.in/yaml.v2 v2.4.0 // indirect
)

require (
	github.com/dgrijalva/jwt-go v3.2.0+incompatible
	github.com/gin-gonic/gin v1.7.7
	github.com/jinzhu/inflection v1.0.0 // indirect
	github.com/jinzhu/now v1.1.5 // indirect
	gorm.io/driver/mysql v1.3.3
	gorm.io/gorm v1.23.4
)
